type_pokemon,prob_type_legendary
psychic,1.498
steel,0.974
dragon,0.974
flying,0.824
fighting,0.749
water,0.599
fire,0.599
fairy,0.599
electric,0.524
grass,0.449
dark,0.375
ghost,0.375
normal,0.375
rock,0.375
poison,0.3
ice,0.225
ground,0.225
bug,0.225
psycho,0.075
